<?xml version="1.0" encoding="utf-8"?>
<!-- Generator: Adobe Illustrator 22.1.0, SVG Export Plug-In . SVG Version: 6.00 Build 0)  -->
<svg version="1.1" id="Camada_1" xmlns="http://www.w3.org/2000/svg" xmlns:xlink="http://www.w3.org/1999/xlink" x="0px" y="0px"
	 viewBox="0 0 400 400" style="enable-background:new 0 0 400 400;" xml:space="preserve">
<style type="text/css">
	.st0{fill:#FFFFFF;}
</style>
<path class="st0" d="M200.3,10.4c104.7,0,189.3,84.7,189.3,189.5c0,99.3-76.3,180.9-173.2,188.8c-5.3,1-10.8,1-16.1,1
	c-14.2,0-27.9-1.4-41.1-4.4C74,366.2,10.4,290.3,10.4,199.9C10.4,95.1,95.6,10.4,200.3,10.4 M200.3,0.7C90.2,0.7,0.6,90.1,0.6,199.9
	c0,92.4,65.8,174.5,156.4,194.9c13.7,3,28.2,4.5,43.3,4.5c5.9,0,11.9,0,17.8-0.9c101.2-8.2,181.3-95.4,181.3-198.5
	C399.4,90.1,310,0.7,200.3,0.7L200.3,0.7z"/>
<path class="st0" d="M221.8,160.1c2.9-3.4,8.8-5.9,17.1-5.9c7.8,0,17.1,1.1,25.9,3.6l7.4-39.8c-15.2-5.3-30.8-6.8-47-6.8
	c-16.2,0-28.9,2.5-39.2,8.4c-10.3,5.7-17.1,12.1-21,21.5c-3.9,8.4-5.9,22.4-5.9,40.1v15.6h-31.4v45.4h31.4v142.9
	c13.2,3,26.9,4.4,41.1,4.4c5.3,0,10.8,0,16.1-1V242.3H258v-45.4h-41.6v-14.7C216.4,171,217.9,164.1,221.8,160.1z"/>
</svg>
