<?xml version="1.0" encoding="utf-8"?>
<!-- Generator: Adobe Illustrator 22.1.0, SVG Export Plug-In . SVG Version: 6.00 Build 0)  -->
<svg version="1.1" id="Camada_1" xmlns="http://www.w3.org/2000/svg" xmlns:xlink="http://www.w3.org/1999/xlink" x="0px" y="0px"
	 viewBox="0 0 400 400" style="enable-background:new 0 0 400 400;" xml:space="preserve">
<style type="text/css">
	.st0{fill:#FFFFFF;}
	.st1{fill-rule:evenodd;clip-rule:evenodd;fill:#FFFFFF;}
</style>
<g>
	<path class="st0" d="M200,13.2c104.2,0,188.6,84.5,188.6,188.6c0,104.2-84.4,188.6-188.6,188.6c-104,0-188.5-84.4-188.5-188.6
		C11.5,97.7,95.9,13.2,200,13.2 M200,3.5C90.6,3.5,1.8,92.5,1.8,201.8C1.8,311.1,90.6,400,200,400c109.3,0,198.2-88.9,198.2-198.2
		C398.2,92.5,309.3,3.5,200,3.5L200,3.5z"/>
</g>
<g>
	<path class="st1" d="M275,100c-49.9,0-100,0-149.9,0c-17.8,0-27.1,9.5-27.1,27.2c0,24.8,0,49.6,0,74.5c0,24.8,0,50.2,0,75.1
		c0,17.2,9.5,26.6,26.2,26.6c50.4,0,100.5,0,150.8,0c17.4,0,27-9.4,27-26.8c0-50.2,0-99.9,0-150.1C302,109.5,292.4,100,275,100z
		 M258.5,123.1c20.2,0,20.2,0,20.2,20.2c0,19.7,0,19.7-19.9,19.7c-20,0-20,0-20-20C238.8,123.1,238.8,123.1,258.5,123.1z
		 M200.1,162.2c21.3,0,39.5,18.4,39.2,39.5c-0.2,21.8-18.3,39.7-39.9,39.4c-21.4-0.4-39.5-18.5-39-39.7
		C160.9,180,178.9,162.2,200.1,162.2z M278.7,268.4c-0.2,9.5-2.6,12.1-12.1,12.1c-22.2,0-44.5,0-66.7,0c-22.1,0-44.3,0-66.5,0
		c-9.3,0-11.9-2.6-11.9-12.1c0-24.6,0.1-49.6-0.4-74.3c0-7,1.9-8.5,8.4-8.4c9.3,0.8,9.5,0.4,8.4,9.5c-3.6,31.4,18.2,62,49.2,68.1
		c32,6.1,64-13.1,72.8-43.8c2.6-9.6,3.4-19.9,1.4-29.3c-0.7-3.6,0.2-4.2,3.3-4.2c14.1-1.1,14.1-1.3,14.1,13.3
		C278.7,222,278.7,245.3,278.7,268.4z"/>
</g>
</svg>
